C:\Users\nahlo\OneDrive\Desktop\ProjectSystemAsFX\Bookshop\src\main\java\com\example\bookshop\model\User.java
C:\Users\nahlo\OneDrive\Desktop\ProjectSystemAsFX\Bookshop\src\main\java\com\example\bookshop\formControllers\BookManagementController.java
C:\Users\nahlo\OneDrive\Desktop\ProjectSystemAsFX\Bookshop\src\main\java\com\example\bookshop\webControllers\UserWebController.java
C:\Users\nahlo\OneDrive\Desktop\ProjectSystemAsFX\Bookshop\src\main\java\com\example\bookshop\formControllers\MainPageController.java
C:\Users\nahlo\OneDrive\Desktop\ProjectSystemAsFX\Bookshop\src\main\java\com\example\bookshop\formControllers\CheckoutController.java
C:\Users\nahlo\OneDrive\Desktop\ProjectSystemAsFX\Bookshop\src\main\java\com\example\bookshop\model\ShoppingCart.java
C:\Users\nahlo\OneDrive\Desktop\ProjectSystemAsFX\Bookshop\src\main\java\com\example\bookshop\formControllers\UserManagementController.java
C:\Users\nahlo\OneDrive\Desktop\ProjectSystemAsFX\Bookshop\src\main\java\com\example\bookshop\formControllers\LoginPopupController.java
C:\Users\nahlo\OneDrive\Desktop\ProjectSystemAsFX\Bookshop\src\main\java\com\example\bookshop\model\Company.java
C:\Users\nahlo\OneDrive\Desktop\ProjectSystemAsFX\Bookshop\src\main\java\com\example\bookshop\model\Order.java
C:\Users\nahlo\OneDrive\Desktop\ProjectSystemAsFX\Bookshop\src\main\java\com\example\bookshop\model\PaymentMethod.java
C:\Users\nahlo\OneDrive\Desktop\ProjectSystemAsFX\Bookshop\src\main\java\module-info.java
C:\Users\nahlo\OneDrive\Desktop\ProjectSystemAsFX\Bookshop\src\main\java\com\example\bookshop\model\Book.java
C:\Users\nahlo\OneDrive\Desktop\ProjectSystemAsFX\Bookshop\src\main\java\com\example\bookshop\utilities\DatabaseController.java
C:\Users\nahlo\OneDrive\Desktop\ProjectSystemAsFX\Bookshop\src\main\java\com\example\bookshop\formControllers\UserAccountController.java
C:\Users\nahlo\OneDrive\Desktop\ProjectSystemAsFX\Bookshop\src\main\java\com\example\bookshop\formControllers\UserOrdersController.java
C:\Users\nahlo\OneDrive\Desktop\ProjectSystemAsFX\Bookshop\src\main\java\com\example\bookshop\model\Role.java
C:\Users\nahlo\OneDrive\Desktop\ProjectSystemAsFX\Bookshop\src\main\java\com\example\bookshop\LoginController.java
C:\Users\nahlo\OneDrive\Desktop\ProjectSystemAsFX\Bookshop\src\main\java\com\example\bookshop\model\Comment.java
C:\Users\nahlo\OneDrive\Desktop\ProjectSystemAsFX\Bookshop\src\main\java\com\example\bookshop\formControllers\SignupController.java
C:\Users\nahlo\OneDrive\Desktop\ProjectSystemAsFX\Bookshop\src\main\java\com\example\bookshop\model\Genre.java
C:\Users\nahlo\OneDrive\Desktop\ProjectSystemAsFX\Bookshop\src\main\java\com\example\bookshop\model\OrderedBook.java
C:\Users\nahlo\OneDrive\Desktop\ProjectSystemAsFX\Bookshop\src\main\java\com\example\bookshop\model\Person.java
